PCBNEW-LibModule-V1  Mon 31 Aug 2015 15:59:41 EDT
# encoding utf-8
Units mm
$INDEX
conn10
$EndINDEX
$MODULE conn10
Po 0 0 0 15 55E4B21E 00000000 ~~
Li conn10
Sc 0
AR 
Op 0 0 0
T0 0 0 1 1 0 0.15 N V 21 N "conn10"
T1 0 0 1 1 0 0.15 N V 21 N "VAL**"
$PAD
Sh "2" C 1.5 1.5 0 0 0
Dr 0.66 0 0
At STD N 00E0FFFF
Ne 0 ""
Po -8.89 2.54
$EndPAD
$PAD
Sh "1" C 1.5 1.5 0 0 0
Dr 0.66 0 0
At STD N 00E0FFFF
Ne 0 ""
Po -11.43 2.54
$EndPAD
$PAD
Sh "3" C 1.5 1.5 0 0 0
Dr 0.66 0 0
At STD N 00E0FFFF
Ne 0 ""
Po -6.35 2.54
$EndPAD
$PAD
Sh "4" C 1.5 1.5 0 0 0
Dr 0.66 0 0
At STD N 00E0FFFF
Ne 0 ""
Po -3.81 2.54
$EndPAD
$PAD
Sh "5" C 1.5 1.5 0 0 0
Dr 0.66 0 0
At STD N 00E0FFFF
Ne 0 ""
Po -1.27 2.54
$EndPAD
$PAD
Sh "6" C 1.5 1.5 0 0 0
Dr 0.66 0 0
At STD N 00E0FFFF
Ne 0 ""
Po 1.27 2.54
$EndPAD
$PAD
Sh "7" C 1.5 1.5 0 0 0
Dr 0.66 0 0
At STD N 00E0FFFF
Ne 0 ""
Po 3.81 2.54
$EndPAD
$PAD
Sh "8" C 1.5 1.5 0 0 0
Dr 0.66 0 0
At STD N 00E0FFFF
Ne 0 ""
Po 6.35 2.54
$EndPAD
$PAD
Sh "9" C 1.5 1.5 0 0 0
Dr 0.66 0 0
At STD N 00E0FFFF
Ne 0 ""
Po 8.89 2.54
$EndPAD
$PAD
Sh "10" C 1.5 1.5 0 0 0
Dr 0.66 0 0
At STD N 00E0FFFF
Ne 0 ""
Po 11.43 2.54
$EndPAD
$EndMODULE conn10
$EndLIBRARY
