EESchema Schematic File Version 2
LIBS:power
LIBS:device
LIBS:transistors
LIBS:conn
LIBS:linear
LIBS:regul
LIBS:74xx
LIBS:cmos4000
LIBS:adc-dac
LIBS:memory
LIBS:xilinx
LIBS:special
LIBS:microcontrollers
LIBS:dsp
LIBS:microchip
LIBS:analog_switches
LIBS:motorola
LIBS:texas
LIBS:intel
LIBS:audio
LIBS:interface
LIBS:digital-audio
LIBS:philips
LIBS:display
LIBS:cypress
LIBS:siliconi
LIBS:opto
LIBS:atmel
LIBS:contrib
LIBS:valves
LIBS:stm32f03_tssop20
LIBS:lm1117-n
LIBS:usb_micro-b
LIBS:qcs-hc49
EELAYER 27 0
EELAYER END
$Descr A4 11693 8268
encoding utf-8
Sheet 1 1
Title ""
Date "31 aug 2015"
Rev ""
Comp ""
Comment1 ""
Comment2 ""
Comment3 ""
Comment4 ""
$EndDescr
$Comp
L STM32F03_TSSOP20_ U2
U 1 1 55E49039
P 5850 3950
F 0 "U2" H 5850 3950 60  0000 C CNN
F 1 "STM32F03_TSSOP20_" H 5850 3950 60  0000 C CNN
F 2 "~" H 5850 3950 60  0000 C CNN
F 3 "~" H 5850 3950 60  0000 C CNN
	1    5850 3950
	1    0    0    -1  
$EndComp
$Comp
L GND #PWR01
U 1 1 55E49BE0
P 3200 1750
F 0 "#PWR01" H 3200 1750 30  0001 C CNN
F 1 "GND" H 3200 1680 30  0001 C CNN
F 2 "" H 3200 1750 60  0000 C CNN
F 3 "" H 3200 1750 60  0000 C CNN
	1    3200 1750
	1    0    0    -1  
$EndComp
$Comp
L C C3
U 1 1 55E49BEF
P 5350 1150
F 0 "C3" H 5350 1250 40  0000 L CNN
F 1 "C" H 5356 1065 40  0000 L CNN
F 2 "~" H 5388 1000 30  0000 C CNN
F 3 "~" H 5350 1150 60  0000 C CNN
	1    5350 1150
	1    0    0    -1  
$EndComp
$Comp
L C C4
U 1 1 55E49CA6
P 6950 1150
F 0 "C4" H 6950 1250 40  0000 L CNN
F 1 "C" H 6956 1065 40  0000 L CNN
F 2 "~" H 6988 1000 30  0000 C CNN
F 3 "~" H 6950 1150 60  0000 C CNN
	1    6950 1150
	1    0    0    -1  
$EndComp
$Comp
L LM1117-N U3
U 1 1 55E49EA2
P 6150 1550
F 0 "U3" H 6050 1600 60  0000 C CNN
F 1 "LM1117-N" H 6050 1600 60  0000 C CNN
F 2 "" H 6050 1600 60  0000 C CNN
F 3 "" H 6050 1600 60  0000 C CNN
	1    6150 1550
	1    0    0    -1  
$EndComp
$Comp
L USB_MICRO-B S1
U 1 1 55E4A0D0
P 4200 1450
F 0 "S1" H 4200 1450 60  0000 C CNN
F 1 "USB_MICRO-B" H 4200 1450 60  0000 C CNN
F 2 "~" H 4200 1450 60  0000 C CNN
F 3 "~" H 4200 1450 60  0000 C CNN
	1    4200 1450
	1    0    0    -1  
$EndComp
$Comp
L QCS-HC49 U1
U 1 1 55E4A3A7
P 3050 2600
F 0 "U1" H 3050 2600 60  0000 C CNN
F 1 "QCS-HC49" H 3050 2600 60  0000 C CNN
F 2 "~" H 3050 2600 60  0000 C CNN
F 3 "~" H 3050 2600 60  0000 C CNN
	1    3050 2600
	0    -1   -1   0   
$EndComp
$Comp
L CONN_10 P1
U 1 1 55E4A461
P 2350 4000
F 0 "P1" V 2300 4000 60  0000 C CNN
F 1 "CONN_10" V 2400 4000 60  0000 C CNN
F 2 "" H 2350 4000 60  0000 C CNN
F 3 "" H 2350 4000 60  0000 C CNN
	1    2350 4000
	-1   0    0    -1  
$EndComp
$Comp
L CONN_10 P2
U 1 1 55E4A470
P 8750 4050
F 0 "P2" V 8700 4050 60  0000 C CNN
F 1 "CONN_10" V 8800 4050 60  0000 C CNN
F 2 "" H 8750 4050 60  0000 C CNN
F 3 "" H 8750 4050 60  0000 C CNN
	1    8750 4050
	1    0    0    -1  
$EndComp
$Comp
L GND #PWR02
U 1 1 55E4A51A
P 6100 1000
F 0 "#PWR02" H 6100 1000 30  0001 C CNN
F 1 "GND" H 6100 930 30  0001 C CNN
F 2 "" H 6100 1000 60  0000 C CNN
F 3 "" H 6100 1000 60  0000 C CNN
	1    6100 1000
	1    0    0    -1  
$EndComp
$Comp
L GND #PWR03
U 1 1 55E4A529
P 6050 2500
F 0 "#PWR03" H 6050 2500 30  0001 C CNN
F 1 "GND" H 6050 2430 30  0001 C CNN
F 2 "" H 6050 2500 60  0000 C CNN
F 3 "" H 6050 2500 60  0000 C CNN
	1    6050 2500
	1    0    0    -1  
$EndComp
$Comp
L GND #PWR04
U 1 1 55E4A78F
P 6800 4150
F 0 "#PWR04" H 6800 4150 30  0001 C CNN
F 1 "GND" H 6800 4080 30  0001 C CNN
F 2 "" H 6800 4150 60  0000 C CNN
F 3 "" H 6800 4150 60  0000 C CNN
	1    6800 4150
	1    0    0    -1  
$EndComp
$Comp
L GND #PWR05
U 1 1 55E4AABA
P 2950 4850
F 0 "#PWR05" H 2950 4850 30  0001 C CNN
F 1 "GND" H 2950 4780 30  0001 C CNN
F 2 "" H 2950 4850 60  0000 C CNN
F 3 "" H 2950 4850 60  0000 C CNN
	1    2950 4850
	1    0    0    -1  
$EndComp
$Comp
L GND #PWR06
U 1 1 55E4AAC9
P 3150 3500
F 0 "#PWR06" H 3150 3500 30  0001 C CNN
F 1 "GND" H 3150 3430 30  0001 C CNN
F 2 "" H 3150 3500 60  0000 C CNN
F 3 "" H 3150 3500 60  0000 C CNN
	1    3150 3500
	1    0    0    -1  
$EndComp
$Comp
L GND #PWR07
U 1 1 55E4ABE5
P 1900 2550
F 0 "#PWR07" H 1900 2550 30  0001 C CNN
F 1 "GND" H 1900 2480 30  0001 C CNN
F 2 "" H 1900 2550 60  0000 C CNN
F 3 "" H 1900 2550 60  0000 C CNN
	1    1900 2550
	1    0    0    -1  
$EndComp
$Comp
L C C2
U 1 1 55E4ABF4
P 2300 3050
F 0 "C2" H 2300 3150 40  0000 L CNN
F 1 "C" H 2306 2965 40  0000 L CNN
F 2 "~" H 2338 2900 30  0000 C CNN
F 3 "~" H 2300 3050 60  0000 C CNN
	1    2300 3050
	0    -1   -1   0   
$EndComp
$Comp
L C C1
U 1 1 55E4AC03
P 2300 2150
F 0 "C1" H 2300 2250 40  0000 L CNN
F 1 "C" H 2306 2065 40  0000 L CNN
F 2 "~" H 2338 2000 30  0000 C CNN
F 3 "~" H 2300 2150 60  0000 C CNN
	1    2300 2150
	0    -1   -1   0   
$EndComp
$Comp
L R R1
U 1 1 55E4AC12
P 3550 3050
F 0 "R1" V 3630 3050 40  0000 C CNN
F 1 "R" V 3557 3051 40  0000 C CNN
F 2 "~" V 3480 3050 30  0000 C CNN
F 3 "~" H 3550 3050 30  0000 C CNN
	1    3550 3050
	0    -1   -1   0   
$EndComp
Wire Wire Line
	3500 1350 3200 1350
Wire Wire Line
	3200 1150 3200 1750
Wire Wire Line
	4900 1350 4900 1150
Wire Wire Line
	4900 1150 3200 1150
Connection ~ 3200 1350
Wire Wire Line
	4000 2050 3400 2050
Wire Wire Line
	3400 2050 3400 1350
Connection ~ 3400 1350
Wire Wire Line
	5500 1400 5150 1400
Wire Wire Line
	5150 1400 5150 2050
Wire Wire Line
	5150 2050 4400 2050
Wire Wire Line
	6750 1400 6750 1600
Wire Wire Line
	6750 1400 7050 1400
Wire Wire Line
	6950 1400 6950 1350
Wire Wire Line
	5350 1350 5350 1400
Connection ~ 5350 1400
Wire Wire Line
	6050 2300 6050 2500
Wire Wire Line
	5350 950  5350 850 
Wire Wire Line
	5350 850  6950 850 
Wire Wire Line
	6950 850  6950 950 
Wire Wire Line
	6100 850  6100 1000
Connection ~ 6100 850 
Wire Wire Line
	7050 1400 7050 3850
Wire Wire Line
	7050 3850 6550 3850
Connection ~ 6950 1400
Wire Wire Line
	6800 3750 6800 3850
Wire Wire Line
	4600 3750 6800 3750
Wire Wire Line
	5150 3750 5150 3850
Connection ~ 6800 3850
Wire Wire Line
	6550 4850 8350 4850
Wire Wire Line
	8350 4850 8350 4500
Wire Wire Line
	8350 4500 8400 4500
Wire Wire Line
	6550 4650 8300 4650
Wire Wire Line
	8300 4650 8300 4400
Wire Wire Line
	8300 4400 8400 4400
Wire Wire Line
	6550 4450 8250 4450
Wire Wire Line
	8250 4450 8250 4300
Wire Wire Line
	8250 4300 8400 4300
Wire Wire Line
	6550 4250 8200 4250
Wire Wire Line
	8200 4250 8200 4200
Wire Wire Line
	8200 4200 8400 4200
Wire Wire Line
	6550 3650 7300 3650
Wire Wire Line
	7300 3650 7300 4100
Wire Wire Line
	7300 4100 8400 4100
Wire Wire Line
	6550 3450 7400 3450
Wire Wire Line
	7400 3450 7400 4000
Wire Wire Line
	7400 4000 8400 4000
Wire Wire Line
	6550 3250 7500 3250
Wire Wire Line
	7500 3250 7500 3900
Wire Wire Line
	7500 3900 8400 3900
Wire Wire Line
	6550 3050 7600 3050
Wire Wire Line
	7600 3050 7600 3800
Wire Wire Line
	7600 3800 8400 3800
Wire Wire Line
	7050 2950 7700 2950
Wire Wire Line
	7700 2950 7700 3700
Wire Wire Line
	7700 3700 8400 3700
Connection ~ 7050 2950
Wire Wire Line
	5400 1400 5400 2850
Wire Wire Line
	5400 2850 7800 2850
Wire Wire Line
	7800 2850 7800 3600
Wire Wire Line
	7800 3600 8400 3600
Connection ~ 5400 1400
Wire Wire Line
	6550 4050 6800 4050
Wire Wire Line
	6800 4050 6800 4150
Wire Wire Line
	5150 3050 4050 3050
Wire Wire Line
	4050 3050 4050 3650
Wire Wire Line
	4050 3650 2700 3650
Wire Wire Line
	5150 3650 4150 3650
Wire Wire Line
	4150 3650 4150 3750
Wire Wire Line
	4150 3750 2700 3750
Wire Wire Line
	5150 4050 4150 4050
Wire Wire Line
	4150 4050 4150 3850
Wire Wire Line
	4150 3850 2700 3850
Wire Wire Line
	5150 4250 4050 4250
Wire Wire Line
	4050 4250 4050 3950
Wire Wire Line
	4050 3950 2700 3950
Wire Wire Line
	5150 4450 3950 4450
Wire Wire Line
	3950 4450 3950 4050
Wire Wire Line
	3950 4050 2700 4050
Wire Wire Line
	5150 4650 3850 4650
Wire Wire Line
	3850 4650 3850 4150
Wire Wire Line
	3850 4150 2700 4150
Wire Wire Line
	5150 4850 3750 4850
Wire Wire Line
	3750 4850 3750 4250
Wire Wire Line
	3750 4250 2700 4250
Wire Wire Line
	2700 3550 2700 3450
Wire Wire Line
	2700 3450 3150 3450
Wire Wire Line
	3150 3450 3150 3500
Wire Wire Line
	2700 4450 2950 4450
Wire Wire Line
	2950 4450 2950 4850
Wire Wire Line
	4600 3750 4600 4350
Wire Wire Line
	4600 4350 2700 4350
Connection ~ 5150 3750
Wire Wire Line
	5150 3450 3800 3450
Wire Wire Line
	3800 3450 3800 3050
Wire Wire Line
	2500 3050 3300 3050
Connection ~ 2950 3050
Wire Wire Line
	2100 2150 2100 3050
Wire Wire Line
	2100 2500 1900 2500
Wire Wire Line
	1900 2500 1900 2550
Connection ~ 2100 2500
Wire Wire Line
	2500 2150 3900 2150
Wire Wire Line
	3900 2150 3900 3250
Wire Wire Line
	3900 3250 5150 3250
Connection ~ 2950 2150
NoConn ~ 4100 2050
NoConn ~ 4200 2050
NoConn ~ 4300 2050
$EndSCHEMATC
